2017-03-12T15:56:21-07:00 - 1 + 2 = 3
2017-03-12T15:56:21-07:00 - 1 + 3 = 4
2017-03-12T15:56:21-07:00 - 1 + 4 = 5
2017-03-12T15:56:21-07:00 - 1 + 5 = 6
2017-03-12T15:56:21-07:00 - 1 + 6 = 7
2017-03-12T15:56:21-07:00 - 1 + 7 = 8
2017-03-12T15:56:21-07:00 - 1 + 8 = 9
2017-03-12T15:56:21-07:00 - 1 + 9 = 10
2017-03-12T15:56:21-07:00 - 2 + 10 = 12
2017-03-12T15:56:21-07:00 - 2 + 2 = 4
2017-03-12T15:56:21-07:00 - 2 + 3 = 5
2017-03-12T15:56:21-07:00 - 2 + 4 = 6
2017-03-12T15:56:21-07:00 - 2 + 5 = 7
2017-03-12T15:56:21-07:00 - 2 + 6 = 8
2017-03-12T15:56:21-07:00 - 2 + 7 = 9
2017-03-12T15:56:21-07:00 - 2 + 8 = 10
2017-03-12T15:56:21-07:00 - 2 + 9 = 11
2017-03-12T15:56:21-07:00 - 3 + 10 = 13
2017-03-12T15:56:21-07:00 - 3 + 2 = 5
2017-03-12T15:56:21-07:00 - 3 + 3 = 6
2017-03-12T15:56:21-07:00 - 3 + 4 = 7
2017-03-12T15:56:21-07:00 - 3 + 5 = 8
2017-03-12T15:56:21-07:00 - 3 + 6 = 9
2017-03-12T15:56:21-07:00 - 3 + 7 = 10
2017-03-12T15:56:21-07:00 - 3 + 8 = 11
2017-03-12T15:56:21-07:00 - 3 + 9 = 12
2017-03-12T15:56:21-07:00 - 4 + 10 = 14
2017-03-12T15:56:21-07:00 - 4 + 2 = 6
2017-03-12T15:56:21-07:00 - 4 + 3 = 7
2017-03-12T15:56:21-07:00 - 4 + 4 = 8
2017-03-12T15:56:21-07:00 - 4 + 5 = 9
2017-03-12T15:56:21-07:00 - 4 + 6 = 10
2017-03-12T15:56:21-07:00 - 4 + 7 = 11
2017-03-12T15:56:21-07:00 - 4 + 8 = 12
2017-03-12T15:56:21-07:00 - 4 + 9 = 13
2017-03-12T15:56:21-07:00 - 5 + 10 = 15
2017-03-12T15:56:21-07:00 - 5 + 2 = 7
2017-03-12T15:56:21-07:00 - 5 + 3 = 8
2017-03-12T15:56:21-07:00 - 5 + 4 = 9
2017-03-12T15:56:21-07:00 - 5 + 5 = 10
2017-03-12T15:56:21-07:00 - 5 + 6 = 11
2017-03-12T15:56:21-07:00 - 5 + 7 = 12
2017-03-12T15:56:21-07:00 - 5 + 8 = 13
2017-03-12T15:56:21-07:00 - 5 + 9 = 14
2017-03-12T15:56:21-07:00 - 6 + 10 = 16
2017-03-12T15:56:21-07:00 - 6 + 2 = 8
2017-03-12T15:56:21-07:00 - 6 + 3 = 9
2017-03-12T15:56:21-07:00 - 6 + 4 = 10
2017-03-12T15:56:21-07:00 - 6 + 5 = 11
2017-03-12T15:56:21-07:00 - 6 + 6 = 12
2017-03-12T15:56:21-07:00 - 6 + 7 = 13
2017-03-12T15:56:21-07:00 - 6 + 8 = 14
2017-03-12T15:56:21-07:00 - 6 + 9 = 15
2017-03-12T15:56:21-07:00 - 7 + 10 = 17
2017-03-12T15:56:21-07:00 - 7 + 2 = 9
2017-03-12T15:56:21-07:00 - 7 + 3 = 10
2017-03-12T15:56:21-07:00 - 7 + 4 = 11
2017-03-12T15:56:21-07:00 - 7 + 5 = 12
2017-03-12T15:56:21-07:00 - 7 + 6 = 13
2017-03-12T15:56:21-07:00 - 7 + 7 = 14
2017-03-12T15:56:21-07:00 - 7 + 8 = 15
2017-03-12T15:56:21-07:00 - 7 + 9 = 16
2017-03-12T15:56:21-07:00 - 8 + 10 = 18
2017-03-12T15:56:21-07:00 - 8 + 2 = 10
2017-03-12T15:56:21-07:00 - 8 + 3 = 11
2017-03-12T15:56:21-07:00 - 8 + 4 = 12
2017-03-12T15:56:21-07:00 - 8 + 5 = 13
2017-03-12T15:56:21-07:00 - 8 + 6 = 14
2017-03-12T15:56:21-07:00 - 8 + 7 = 15
2017-03-12T15:56:21-07:00 - 8 + 8 = 16
2017-03-12T15:56:21-07:00 - 8 + 9 = 17
2017-03-12T15:56:21-07:00 - 9 + 10 = 19
2017-03-12T15:56:21-07:00 - 9 + 2 = 11
2017-03-12T15:56:21-07:00 - 9 + 3 = 12
2017-03-12T15:56:21-07:00 - 9 + 4 = 13
2017-03-12T15:56:21-07:00 - 9 + 5 = 14
2017-03-12T15:56:21-07:00 - 9 + 6 = 15
2017-03-12T15:56:21-07:00 - 9 + 7 = 16
2017-03-12T15:56:21-07:00 - 9 + 8 = 17
2017-03-12T15:56:21-07:00 - 9 + 9 = 18
2017-03-12T15:56:21-07:00 - 10 + 10 = 20
